8 
Ethane
C    0.0000000   -0.0000000   -0.7595847
C    0.0000000   -0.0000000    0.7595847
H    0.5222891   -0.9046312   -1.1361620
H    0.5222891    0.9046312   -1.1361620
H   -1.0445781    0.0000000   -1.1361620
H    1.0445781   -0.0000000    1.1361620
H   -0.5222891   -0.9046312    1.1361620
H   -0.5222891    0.9046312    1.1361620